<mxfile host="app.diagrams.net" modified="2023-07-09T18:38:41.065Z" agent="Mozilla/5.0 (Windows NT 10.0; Win64; x64) AppleWebKit/537.36 (KHTML, like Gecko) Chrome/114.0.0.0 Safari/537.36" etag="1U2GlUSUXqQrhYy3s_Wc" version="21.3.8" type="gitlab">
  <diagram name="Page-1" id="e7e014a7-5840-1c2e-5031-d8a46d1fe8dd">
    <mxGraphModel dx="2300" dy="2149" grid="1" gridSize="10" guides="1" tooltips="1" connect="1" arrows="1" fold="1" page="1" pageScale="1" pageWidth="1169" pageHeight="826" background="none" math="0" shadow="0">
      <root>
        <mxCell id="0" />
        <mxCell id="1" parent="0" />
        <mxCell id="KgrCzX5lwD0Mlf9f1d2X-56" style="orthogonalLoop=1;jettySize=auto;html=1;exitX=1;exitY=0.3333333333333333;exitDx=0;exitDy=0;exitPerimeter=0;entryX=0;entryY=0.5;entryDx=0;entryDy=0;strokeColor=default;endArrow=classic;endFill=1;" edge="1" parent="1" source="KgrCzX5lwD0Mlf9f1d2X-41" target="KgrCzX5lwD0Mlf9f1d2X-42">
          <mxGeometry relative="1" as="geometry" />
        </mxCell>
        <mxCell id="KgrCzX5lwD0Mlf9f1d2X-57" style="rounded=0;orthogonalLoop=1;jettySize=auto;html=1;exitX=1;exitY=0.3333333333333333;exitDx=0;exitDy=0;exitPerimeter=0;entryX=0;entryY=0.5;entryDx=0;entryDy=0;" edge="1" parent="1" source="KgrCzX5lwD0Mlf9f1d2X-41" target="KgrCzX5lwD0Mlf9f1d2X-44">
          <mxGeometry relative="1" as="geometry" />
        </mxCell>
        <mxCell id="KgrCzX5lwD0Mlf9f1d2X-58" style="edgeStyle=none;shape=connector;rounded=0;orthogonalLoop=1;jettySize=auto;html=1;exitX=1;exitY=0.3333333333333333;exitDx=0;exitDy=0;exitPerimeter=0;entryX=-0.012;entryY=0.412;entryDx=0;entryDy=0;entryPerimeter=0;labelBackgroundColor=default;strokeColor=default;fontFamily=Helvetica;fontSize=11;fontColor=default;endArrow=classic;" edge="1" parent="1" source="KgrCzX5lwD0Mlf9f1d2X-41" target="KgrCzX5lwD0Mlf9f1d2X-43">
          <mxGeometry relative="1" as="geometry" />
        </mxCell>
        <mxCell id="KgrCzX5lwD0Mlf9f1d2X-66" style="edgeStyle=none;shape=connector;rounded=0;orthogonalLoop=1;jettySize=auto;html=1;exitX=1;exitY=0.3333333333333333;exitDx=0;exitDy=0;exitPerimeter=0;entryX=0;entryY=0.5;entryDx=0;entryDy=0;labelBackgroundColor=default;strokeColor=default;fontFamily=Helvetica;fontSize=11;fontColor=default;endArrow=classic;" edge="1" parent="1" source="KgrCzX5lwD0Mlf9f1d2X-41" target="KgrCzX5lwD0Mlf9f1d2X-51">
          <mxGeometry relative="1" as="geometry" />
        </mxCell>
        <mxCell id="KgrCzX5lwD0Mlf9f1d2X-70" style="edgeStyle=none;shape=connector;rounded=0;orthogonalLoop=1;jettySize=auto;html=1;exitX=1;exitY=0.3333333333333333;exitDx=0;exitDy=0;exitPerimeter=0;entryX=0;entryY=0.5;entryDx=0;entryDy=0;labelBackgroundColor=default;strokeColor=default;fontFamily=Helvetica;fontSize=11;fontColor=default;endArrow=classic;" edge="1" parent="1" source="KgrCzX5lwD0Mlf9f1d2X-41" target="KgrCzX5lwD0Mlf9f1d2X-48">
          <mxGeometry relative="1" as="geometry" />
        </mxCell>
        <mxCell id="KgrCzX5lwD0Mlf9f1d2X-71" style="edgeStyle=none;shape=connector;rounded=0;orthogonalLoop=1;jettySize=auto;html=1;exitX=1;exitY=0.3333333333333333;exitDx=0;exitDy=0;exitPerimeter=0;entryX=0;entryY=0.5;entryDx=0;entryDy=0;labelBackgroundColor=default;strokeColor=default;fontFamily=Helvetica;fontSize=11;fontColor=default;endArrow=classic;" edge="1" parent="1" source="KgrCzX5lwD0Mlf9f1d2X-41" target="KgrCzX5lwD0Mlf9f1d2X-49">
          <mxGeometry relative="1" as="geometry" />
        </mxCell>
        <mxCell id="KgrCzX5lwD0Mlf9f1d2X-72" style="edgeStyle=none;shape=connector;rounded=0;orthogonalLoop=1;jettySize=auto;html=1;exitX=1;exitY=0.3333333333333333;exitDx=0;exitDy=0;exitPerimeter=0;entryX=0;entryY=0.5;entryDx=0;entryDy=0;labelBackgroundColor=default;strokeColor=default;fontFamily=Helvetica;fontSize=11;fontColor=default;endArrow=classic;" edge="1" parent="1" source="KgrCzX5lwD0Mlf9f1d2X-41" target="KgrCzX5lwD0Mlf9f1d2X-69">
          <mxGeometry relative="1" as="geometry" />
        </mxCell>
        <mxCell id="KgrCzX5lwD0Mlf9f1d2X-73" style="edgeStyle=none;shape=connector;rounded=0;orthogonalLoop=1;jettySize=auto;html=1;exitX=1;exitY=0.3333333333333333;exitDx=0;exitDy=0;exitPerimeter=0;entryX=0;entryY=0.5;entryDx=0;entryDy=0;labelBackgroundColor=default;strokeColor=default;fontFamily=Helvetica;fontSize=11;fontColor=default;endArrow=classic;" edge="1" parent="1" source="KgrCzX5lwD0Mlf9f1d2X-41" target="KgrCzX5lwD0Mlf9f1d2X-45">
          <mxGeometry relative="1" as="geometry" />
        </mxCell>
        <mxCell id="KgrCzX5lwD0Mlf9f1d2X-74" style="edgeStyle=none;shape=connector;rounded=0;orthogonalLoop=1;jettySize=auto;html=1;exitX=1;exitY=0.3333333333333333;exitDx=0;exitDy=0;exitPerimeter=0;entryX=0;entryY=0.5;entryDx=0;entryDy=0;labelBackgroundColor=default;strokeColor=default;fontFamily=Helvetica;fontSize=11;fontColor=default;endArrow=classic;" edge="1" parent="1" source="KgrCzX5lwD0Mlf9f1d2X-41" target="KgrCzX5lwD0Mlf9f1d2X-50">
          <mxGeometry relative="1" as="geometry" />
        </mxCell>
        <mxCell id="KgrCzX5lwD0Mlf9f1d2X-41" value="Admin" style="shape=umlActor;verticalLabelPosition=bottom;verticalAlign=top;html=1;" vertex="1" parent="1">
          <mxGeometry x="120" y="600" width="30" height="60" as="geometry" />
        </mxCell>
        <mxCell id="KgrCzX5lwD0Mlf9f1d2X-42" value="Dashboard" style="ellipse;whiteSpace=wrap;html=1;" vertex="1" parent="1">
          <mxGeometry x="500" y="820" width="140" height="70" as="geometry" />
        </mxCell>
        <mxCell id="KgrCzX5lwD0Mlf9f1d2X-43" value="Absensi" style="ellipse;whiteSpace=wrap;html=1;" vertex="1" parent="1">
          <mxGeometry x="500" y="950" width="140" height="70" as="geometry" />
        </mxCell>
        <mxCell id="KgrCzX5lwD0Mlf9f1d2X-75" style="edgeStyle=none;shape=connector;rounded=0;orthogonalLoop=1;jettySize=auto;html=1;exitX=1;exitY=0.5;exitDx=0;exitDy=0;entryX=0;entryY=0.5;entryDx=0;entryDy=0;labelBackgroundColor=default;strokeColor=default;fontFamily=Helvetica;fontSize=11;fontColor=default;endArrow=classic;dashed=1;" edge="1" parent="1" source="KgrCzX5lwD0Mlf9f1d2X-44" target="KgrCzX5lwD0Mlf9f1d2X-47">
          <mxGeometry relative="1" as="geometry" />
        </mxCell>
        <mxCell id="KgrCzX5lwD0Mlf9f1d2X-77" value="&amp;lt;&amp;lt;include&amp;gt;&amp;gt;" style="edgeLabel;html=1;align=center;verticalAlign=middle;resizable=0;points=[];fontSize=11;fontFamily=Helvetica;fontColor=default;" vertex="1" connectable="0" parent="KgrCzX5lwD0Mlf9f1d2X-75">
          <mxGeometry x="-0.133" y="3" relative="1" as="geometry">
            <mxPoint x="-1" y="-1" as="offset" />
          </mxGeometry>
        </mxCell>
        <mxCell id="KgrCzX5lwD0Mlf9f1d2X-44" value="Manajemen harga produk&amp;nbsp;&amp;nbsp;" style="ellipse;whiteSpace=wrap;html=1;align=center;" vertex="1" parent="1">
          <mxGeometry x="500" y="40" width="140" height="70" as="geometry" />
        </mxCell>
        <mxCell id="KgrCzX5lwD0Mlf9f1d2X-45" value="Manajemen daftar outlet" style="ellipse;whiteSpace=wrap;html=1;align=center;" vertex="1" parent="1">
          <mxGeometry x="500" y="1490" width="140" height="70" as="geometry" />
        </mxCell>
        <mxCell id="KgrCzX5lwD0Mlf9f1d2X-47" value="Login" style="ellipse;whiteSpace=wrap;html=1;" vertex="1" parent="1">
          <mxGeometry x="1169" y="889" width="140" height="70" as="geometry" />
        </mxCell>
        <mxCell id="KgrCzX5lwD0Mlf9f1d2X-48" value="Manajemen biaya operasional" style="ellipse;whiteSpace=wrap;html=1;" vertex="1" parent="1">
          <mxGeometry x="500" y="550" width="140" height="70" as="geometry" />
        </mxCell>
        <mxCell id="KgrCzX5lwD0Mlf9f1d2X-49" value="Melihat grafik penjualan" style="ellipse;whiteSpace=wrap;html=1;" vertex="1" parent="1">
          <mxGeometry x="500" y="1380" width="140" height="70" as="geometry" />
        </mxCell>
        <mxCell id="KgrCzX5lwD0Mlf9f1d2X-50" value="&amp;nbsp; Manajemen plan call&amp;nbsp;&amp;nbsp;" style="ellipse;whiteSpace=wrap;html=1;" vertex="1" parent="1">
          <mxGeometry x="506" y="1740" width="140" height="70" as="geometry" />
        </mxCell>
        <mxCell id="KgrCzX5lwD0Mlf9f1d2X-68" value="" style="edgeStyle=none;shape=connector;rounded=0;orthogonalLoop=1;jettySize=auto;html=1;labelBackgroundColor=default;strokeColor=default;fontFamily=Helvetica;fontSize=11;fontColor=default;endArrow=classic;" edge="1" parent="1" source="KgrCzX5lwD0Mlf9f1d2X-51" target="KgrCzX5lwD0Mlf9f1d2X-67">
          <mxGeometry relative="1" as="geometry" />
        </mxCell>
        <mxCell id="KgrCzX5lwD0Mlf9f1d2X-51" value="&lt;div style=&quot;&quot;&gt;&lt;span style=&quot;background-color: initial;&quot;&gt;Manajemen stok produk&lt;/span&gt;&lt;/div&gt;" style="ellipse;whiteSpace=wrap;html=1;align=center;" vertex="1" parent="1">
          <mxGeometry x="500" y="280" width="140" height="70" as="geometry" />
        </mxCell>
        <mxCell id="KgrCzX5lwD0Mlf9f1d2X-61" style="edgeStyle=none;shape=connector;rounded=0;orthogonalLoop=1;jettySize=auto;html=1;exitX=0.5;exitY=0;exitDx=0;exitDy=0;entryX=0;entryY=1;entryDx=0;entryDy=0;labelBackgroundColor=default;strokeColor=default;fontFamily=Helvetica;fontSize=11;fontColor=default;endArrow=classic;dashed=1;" edge="1" parent="1" source="KgrCzX5lwD0Mlf9f1d2X-59" target="KgrCzX5lwD0Mlf9f1d2X-44">
          <mxGeometry relative="1" as="geometry" />
        </mxCell>
        <mxCell id="KgrCzX5lwD0Mlf9f1d2X-65" value="&amp;lt;&amp;lt;extend&amp;gt;&amp;gt;" style="edgeLabel;html=1;align=center;verticalAlign=middle;resizable=0;points=[];fontSize=11;fontFamily=Helvetica;fontColor=default;" vertex="1" connectable="0" parent="KgrCzX5lwD0Mlf9f1d2X-61">
          <mxGeometry x="0.4675" y="1" relative="1" as="geometry">
            <mxPoint x="-3" y="15" as="offset" />
          </mxGeometry>
        </mxCell>
        <mxCell id="KgrCzX5lwD0Mlf9f1d2X-59" value="menambah harga produk&amp;nbsp;&amp;nbsp;" style="ellipse;whiteSpace=wrap;html=1;align=center;" vertex="1" parent="1">
          <mxGeometry x="440" y="160" width="110" height="60" as="geometry" />
        </mxCell>
        <mxCell id="KgrCzX5lwD0Mlf9f1d2X-62" style="edgeStyle=none;shape=connector;rounded=0;orthogonalLoop=1;jettySize=auto;html=1;exitX=0.5;exitY=0;exitDx=0;exitDy=0;entryX=1;entryY=1;entryDx=0;entryDy=0;labelBackgroundColor=default;strokeColor=default;fontFamily=Helvetica;fontSize=11;fontColor=default;endArrow=classic;dashed=1;" edge="1" parent="1" source="KgrCzX5lwD0Mlf9f1d2X-60" target="KgrCzX5lwD0Mlf9f1d2X-44">
          <mxGeometry relative="1" as="geometry" />
        </mxCell>
        <mxCell id="KgrCzX5lwD0Mlf9f1d2X-64" value="&amp;lt;&amp;lt;extend&amp;gt;&amp;gt;" style="edgeLabel;html=1;align=center;verticalAlign=middle;resizable=0;points=[];fontSize=11;fontFamily=Helvetica;fontColor=default;" vertex="1" connectable="0" parent="KgrCzX5lwD0Mlf9f1d2X-62">
          <mxGeometry x="0.3983" y="1" relative="1" as="geometry">
            <mxPoint x="9" y="12" as="offset" />
          </mxGeometry>
        </mxCell>
        <mxCell id="KgrCzX5lwD0Mlf9f1d2X-60" value="mengupdate harga produk&amp;nbsp;&amp;nbsp;" style="ellipse;whiteSpace=wrap;html=1;align=center;" vertex="1" parent="1">
          <mxGeometry x="590" y="160" width="110" height="60" as="geometry" />
        </mxCell>
        <mxCell id="KgrCzX5lwD0Mlf9f1d2X-67" value="&lt;div style=&quot;&quot;&gt;&lt;span style=&quot;background-color: initial;&quot;&gt;Menambah stok produk&lt;/span&gt;&lt;/div&gt;" style="ellipse;whiteSpace=wrap;html=1;align=center;" vertex="1" parent="1">
          <mxGeometry x="500" y="430" width="140" height="70" as="geometry" />
        </mxCell>
        <mxCell id="KgrCzX5lwD0Mlf9f1d2X-69" value="Melihat rekap penjualan" style="ellipse;whiteSpace=wrap;html=1;" vertex="1" parent="1">
          <mxGeometry x="500" y="1280" width="140" height="70" as="geometry" />
        </mxCell>
        <mxCell id="KgrCzX5lwD0Mlf9f1d2X-80" style="edgeStyle=none;shape=connector;rounded=0;orthogonalLoop=1;jettySize=auto;html=1;exitX=1;exitY=0.5;exitDx=0;exitDy=0;entryX=0;entryY=0.5;entryDx=0;entryDy=0;labelBackgroundColor=default;strokeColor=default;fontFamily=Helvetica;fontSize=11;fontColor=default;endArrow=classic;dashed=1;" edge="1" parent="1" source="KgrCzX5lwD0Mlf9f1d2X-51" target="KgrCzX5lwD0Mlf9f1d2X-47">
          <mxGeometry relative="1" as="geometry">
            <mxPoint x="650" y="290" as="sourcePoint" />
            <mxPoint x="1140" y="860" as="targetPoint" />
          </mxGeometry>
        </mxCell>
        <mxCell id="KgrCzX5lwD0Mlf9f1d2X-81" value="&amp;lt;&amp;lt;include&amp;gt;&amp;gt;" style="edgeLabel;html=1;align=center;verticalAlign=middle;resizable=0;points=[];fontSize=11;fontFamily=Helvetica;fontColor=default;" vertex="1" connectable="0" parent="KgrCzX5lwD0Mlf9f1d2X-80">
          <mxGeometry x="-0.133" y="3" relative="1" as="geometry">
            <mxPoint x="-1" y="-1" as="offset" />
          </mxGeometry>
        </mxCell>
        <mxCell id="KgrCzX5lwD0Mlf9f1d2X-82" style="edgeStyle=none;shape=connector;rounded=0;orthogonalLoop=1;jettySize=auto;html=1;exitX=1;exitY=0.5;exitDx=0;exitDy=0;entryX=0;entryY=0.5;entryDx=0;entryDy=0;labelBackgroundColor=default;strokeColor=default;fontFamily=Helvetica;fontSize=11;fontColor=default;endArrow=classic;dashed=1;" edge="1" parent="1" source="KgrCzX5lwD0Mlf9f1d2X-48" target="KgrCzX5lwD0Mlf9f1d2X-47">
          <mxGeometry relative="1" as="geometry">
            <mxPoint x="650" y="325" as="sourcePoint" />
            <mxPoint x="1140" y="655" as="targetPoint" />
          </mxGeometry>
        </mxCell>
        <mxCell id="KgrCzX5lwD0Mlf9f1d2X-83" value="&amp;lt;&amp;lt;include&amp;gt;&amp;gt;" style="edgeLabel;html=1;align=center;verticalAlign=middle;resizable=0;points=[];fontSize=11;fontFamily=Helvetica;fontColor=default;" vertex="1" connectable="0" parent="KgrCzX5lwD0Mlf9f1d2X-82">
          <mxGeometry x="-0.133" y="3" relative="1" as="geometry">
            <mxPoint x="-1" y="2" as="offset" />
          </mxGeometry>
        </mxCell>
        <mxCell id="KgrCzX5lwD0Mlf9f1d2X-84" style="edgeStyle=none;shape=connector;rounded=0;orthogonalLoop=1;jettySize=auto;html=1;exitX=1;exitY=0.5;exitDx=0;exitDy=0;entryX=0;entryY=0.5;entryDx=0;entryDy=0;labelBackgroundColor=default;strokeColor=default;fontFamily=Helvetica;fontSize=11;fontColor=default;endArrow=classic;dashed=1;" edge="1" parent="1" source="KgrCzX5lwD0Mlf9f1d2X-42" target="KgrCzX5lwD0Mlf9f1d2X-47">
          <mxGeometry relative="1" as="geometry">
            <mxPoint x="650" y="595" as="sourcePoint" />
            <mxPoint x="1140" y="655" as="targetPoint" />
          </mxGeometry>
        </mxCell>
        <mxCell id="KgrCzX5lwD0Mlf9f1d2X-85" value="&amp;lt;&amp;lt;include&amp;gt;&amp;gt;" style="edgeLabel;html=1;align=center;verticalAlign=middle;resizable=0;points=[];fontSize=11;fontFamily=Helvetica;fontColor=default;" vertex="1" connectable="0" parent="KgrCzX5lwD0Mlf9f1d2X-84">
          <mxGeometry x="-0.133" y="3" relative="1" as="geometry">
            <mxPoint x="-1" y="2" as="offset" />
          </mxGeometry>
        </mxCell>
        <mxCell id="KgrCzX5lwD0Mlf9f1d2X-86" style="edgeStyle=none;shape=connector;rounded=0;orthogonalLoop=1;jettySize=auto;html=1;exitX=1;exitY=0.5;exitDx=0;exitDy=0;entryX=0;entryY=0.5;entryDx=0;entryDy=0;labelBackgroundColor=default;strokeColor=default;fontFamily=Helvetica;fontSize=11;fontColor=default;endArrow=classic;dashed=1;" edge="1" parent="1" source="KgrCzX5lwD0Mlf9f1d2X-43" target="KgrCzX5lwD0Mlf9f1d2X-47">
          <mxGeometry relative="1" as="geometry">
            <mxPoint x="660" y="605" as="sourcePoint" />
            <mxPoint x="1150" y="665" as="targetPoint" />
          </mxGeometry>
        </mxCell>
        <mxCell id="KgrCzX5lwD0Mlf9f1d2X-87" value="&amp;lt;&amp;lt;include&amp;gt;&amp;gt;" style="edgeLabel;html=1;align=center;verticalAlign=middle;resizable=0;points=[];fontSize=11;fontFamily=Helvetica;fontColor=default;" vertex="1" connectable="0" parent="KgrCzX5lwD0Mlf9f1d2X-86">
          <mxGeometry x="-0.133" y="3" relative="1" as="geometry">
            <mxPoint x="-1" y="2" as="offset" />
          </mxGeometry>
        </mxCell>
        <mxCell id="KgrCzX5lwD0Mlf9f1d2X-88" style="edgeStyle=none;shape=connector;rounded=0;orthogonalLoop=1;jettySize=auto;html=1;exitX=1;exitY=0.5;exitDx=0;exitDy=0;entryX=0;entryY=0.5;entryDx=0;entryDy=0;labelBackgroundColor=default;strokeColor=default;fontFamily=Helvetica;fontSize=11;fontColor=default;endArrow=classic;dashed=1;" edge="1" parent="1" source="KgrCzX5lwD0Mlf9f1d2X-69" target="KgrCzX5lwD0Mlf9f1d2X-47">
          <mxGeometry relative="1" as="geometry">
            <mxPoint x="670" y="615" as="sourcePoint" />
            <mxPoint x="1160" y="675" as="targetPoint" />
          </mxGeometry>
        </mxCell>
        <mxCell id="KgrCzX5lwD0Mlf9f1d2X-89" value="&amp;lt;&amp;lt;include&amp;gt;&amp;gt;" style="edgeLabel;html=1;align=center;verticalAlign=middle;resizable=0;points=[];fontSize=11;fontFamily=Helvetica;fontColor=default;" vertex="1" connectable="0" parent="KgrCzX5lwD0Mlf9f1d2X-88">
          <mxGeometry x="-0.133" y="3" relative="1" as="geometry">
            <mxPoint x="-1" y="2" as="offset" />
          </mxGeometry>
        </mxCell>
        <mxCell id="KgrCzX5lwD0Mlf9f1d2X-90" style="edgeStyle=none;shape=connector;rounded=0;orthogonalLoop=1;jettySize=auto;html=1;exitX=1;exitY=0.5;exitDx=0;exitDy=0;entryX=0;entryY=0.5;entryDx=0;entryDy=0;labelBackgroundColor=default;strokeColor=default;fontFamily=Helvetica;fontSize=11;fontColor=default;endArrow=classic;dashed=1;" edge="1" parent="1" source="KgrCzX5lwD0Mlf9f1d2X-49" target="KgrCzX5lwD0Mlf9f1d2X-47">
          <mxGeometry relative="1" as="geometry">
            <mxPoint x="650" y="965" as="sourcePoint" />
            <mxPoint x="1140" y="655" as="targetPoint" />
          </mxGeometry>
        </mxCell>
        <mxCell id="KgrCzX5lwD0Mlf9f1d2X-91" value="&amp;lt;&amp;lt;include&amp;gt;&amp;gt;" style="edgeLabel;html=1;align=center;verticalAlign=middle;resizable=0;points=[];fontSize=11;fontFamily=Helvetica;fontColor=default;" vertex="1" connectable="0" parent="KgrCzX5lwD0Mlf9f1d2X-90">
          <mxGeometry x="-0.133" y="3" relative="1" as="geometry">
            <mxPoint x="-1" y="2" as="offset" />
          </mxGeometry>
        </mxCell>
        <mxCell id="KgrCzX5lwD0Mlf9f1d2X-92" style="edgeStyle=none;shape=connector;rounded=0;orthogonalLoop=1;jettySize=auto;html=1;exitX=1;exitY=0.5;exitDx=0;exitDy=0;entryX=0;entryY=0.5;entryDx=0;entryDy=0;labelBackgroundColor=default;strokeColor=default;fontFamily=Helvetica;fontSize=11;fontColor=default;endArrow=classic;dashed=1;" edge="1" parent="1" source="KgrCzX5lwD0Mlf9f1d2X-45" target="KgrCzX5lwD0Mlf9f1d2X-47">
          <mxGeometry relative="1" as="geometry">
            <mxPoint x="660" y="975" as="sourcePoint" />
            <mxPoint x="1150" y="665" as="targetPoint" />
          </mxGeometry>
        </mxCell>
        <mxCell id="KgrCzX5lwD0Mlf9f1d2X-93" value="&amp;lt;&amp;lt;include&amp;gt;&amp;gt;" style="edgeLabel;html=1;align=center;verticalAlign=middle;resizable=0;points=[];fontSize=11;fontFamily=Helvetica;fontColor=default;" vertex="1" connectable="0" parent="KgrCzX5lwD0Mlf9f1d2X-92">
          <mxGeometry x="-0.133" y="3" relative="1" as="geometry">
            <mxPoint x="-1" y="2" as="offset" />
          </mxGeometry>
        </mxCell>
        <mxCell id="KgrCzX5lwD0Mlf9f1d2X-94" style="edgeStyle=none;shape=connector;rounded=0;orthogonalLoop=1;jettySize=auto;html=1;exitX=1;exitY=0.5;exitDx=0;exitDy=0;entryX=0;entryY=0.5;entryDx=0;entryDy=0;labelBackgroundColor=default;strokeColor=default;fontFamily=Helvetica;fontSize=11;fontColor=default;endArrow=classic;dashed=1;" edge="1" parent="1" source="KgrCzX5lwD0Mlf9f1d2X-50" target="KgrCzX5lwD0Mlf9f1d2X-47">
          <mxGeometry relative="1" as="geometry">
            <mxPoint x="670" y="985" as="sourcePoint" />
            <mxPoint x="1160" y="675" as="targetPoint" />
          </mxGeometry>
        </mxCell>
        <mxCell id="KgrCzX5lwD0Mlf9f1d2X-95" value="&amp;lt;&amp;lt;include&amp;gt;&amp;gt;" style="edgeLabel;html=1;align=center;verticalAlign=middle;resizable=0;points=[];fontSize=11;fontFamily=Helvetica;fontColor=default;" vertex="1" connectable="0" parent="KgrCzX5lwD0Mlf9f1d2X-94">
          <mxGeometry x="-0.133" y="3" relative="1" as="geometry">
            <mxPoint x="-1" y="2" as="offset" />
          </mxGeometry>
        </mxCell>
        <mxCell id="KgrCzX5lwD0Mlf9f1d2X-96" style="edgeStyle=none;shape=connector;rounded=0;orthogonalLoop=1;jettySize=auto;html=1;exitX=0.5;exitY=0;exitDx=0;exitDy=0;entryX=0;entryY=1;entryDx=0;entryDy=0;labelBackgroundColor=default;strokeColor=default;fontFamily=Helvetica;fontSize=11;fontColor=default;endArrow=classic;dashed=1;" edge="1" parent="1" source="KgrCzX5lwD0Mlf9f1d2X-98" target="KgrCzX5lwD0Mlf9f1d2X-48">
          <mxGeometry relative="1" as="geometry">
            <mxPoint x="541" y="610" as="targetPoint" />
          </mxGeometry>
        </mxCell>
        <mxCell id="KgrCzX5lwD0Mlf9f1d2X-97" value="&amp;lt;&amp;lt;extend&amp;gt;&amp;gt;" style="edgeLabel;html=1;align=center;verticalAlign=middle;resizable=0;points=[];fontSize=11;fontFamily=Helvetica;fontColor=default;" vertex="1" connectable="0" parent="KgrCzX5lwD0Mlf9f1d2X-96">
          <mxGeometry x="0.4675" y="1" relative="1" as="geometry">
            <mxPoint x="-3" y="15" as="offset" />
          </mxGeometry>
        </mxCell>
        <mxCell id="KgrCzX5lwD0Mlf9f1d2X-98" value="Menambah biaya operasional" style="ellipse;whiteSpace=wrap;html=1;align=center;" vertex="1" parent="1">
          <mxGeometry x="430" y="650" width="110" height="60" as="geometry" />
        </mxCell>
        <mxCell id="KgrCzX5lwD0Mlf9f1d2X-99" style="edgeStyle=none;shape=connector;rounded=0;orthogonalLoop=1;jettySize=auto;html=1;exitX=0.5;exitY=0;exitDx=0;exitDy=0;entryX=0.5;entryY=1;entryDx=0;entryDy=0;labelBackgroundColor=default;strokeColor=default;fontFamily=Helvetica;fontSize=11;fontColor=default;endArrow=classic;dashed=1;" edge="1" parent="1" source="KgrCzX5lwD0Mlf9f1d2X-101" target="KgrCzX5lwD0Mlf9f1d2X-48">
          <mxGeometry relative="1" as="geometry">
            <mxPoint x="651" y="650" as="targetPoint" />
          </mxGeometry>
        </mxCell>
        <mxCell id="KgrCzX5lwD0Mlf9f1d2X-100" value="&amp;lt;&amp;lt;extend&amp;gt;&amp;gt;" style="edgeLabel;html=1;align=center;verticalAlign=middle;resizable=0;points=[];fontSize=11;fontFamily=Helvetica;fontColor=default;" vertex="1" connectable="0" parent="KgrCzX5lwD0Mlf9f1d2X-99">
          <mxGeometry x="0.4675" y="1" relative="1" as="geometry">
            <mxPoint x="-3" y="15" as="offset" />
          </mxGeometry>
        </mxCell>
        <mxCell id="KgrCzX5lwD0Mlf9f1d2X-101" value="Mengupdate biaya operasional" style="ellipse;whiteSpace=wrap;html=1;align=center;" vertex="1" parent="1">
          <mxGeometry x="515" y="710" width="110" height="60" as="geometry" />
        </mxCell>
        <mxCell id="KgrCzX5lwD0Mlf9f1d2X-102" style="edgeStyle=none;shape=connector;rounded=0;orthogonalLoop=1;jettySize=auto;html=1;exitX=0.5;exitY=0;exitDx=0;exitDy=0;entryX=1;entryY=1;entryDx=0;entryDy=0;labelBackgroundColor=default;strokeColor=default;fontFamily=Helvetica;fontSize=11;fontColor=default;endArrow=classic;dashed=1;" edge="1" parent="1" source="KgrCzX5lwD0Mlf9f1d2X-104" target="KgrCzX5lwD0Mlf9f1d2X-48">
          <mxGeometry relative="1" as="geometry">
            <mxPoint x="771" y="630" as="targetPoint" />
          </mxGeometry>
        </mxCell>
        <mxCell id="KgrCzX5lwD0Mlf9f1d2X-103" value="&amp;lt;&amp;lt;extend&amp;gt;&amp;gt;" style="edgeLabel;html=1;align=center;verticalAlign=middle;resizable=0;points=[];fontSize=11;fontFamily=Helvetica;fontColor=default;" vertex="1" connectable="0" parent="KgrCzX5lwD0Mlf9f1d2X-102">
          <mxGeometry x="0.4675" y="1" relative="1" as="geometry">
            <mxPoint x="14" y="15" as="offset" />
          </mxGeometry>
        </mxCell>
        <mxCell id="KgrCzX5lwD0Mlf9f1d2X-104" value="menghapus biaya operasional" style="ellipse;whiteSpace=wrap;html=1;align=center;" vertex="1" parent="1">
          <mxGeometry x="610" y="650" width="110" height="60" as="geometry" />
        </mxCell>
        <mxCell id="KgrCzX5lwD0Mlf9f1d2X-109" style="edgeStyle=none;shape=connector;rounded=0;orthogonalLoop=1;jettySize=auto;html=1;exitX=0.5;exitY=0;exitDx=0;exitDy=0;entryX=0;entryY=1;entryDx=0;entryDy=0;labelBackgroundColor=default;strokeColor=default;fontFamily=Helvetica;fontSize=11;fontColor=default;endArrow=classic;dashed=1;" edge="1" parent="1" source="KgrCzX5lwD0Mlf9f1d2X-111" target="KgrCzX5lwD0Mlf9f1d2X-43">
          <mxGeometry relative="1" as="geometry">
            <mxPoint x="520" y="1020" as="targetPoint" />
          </mxGeometry>
        </mxCell>
        <mxCell id="KgrCzX5lwD0Mlf9f1d2X-110" value="&amp;lt;&amp;lt;extend&amp;gt;&amp;gt;" style="edgeLabel;html=1;align=center;verticalAlign=middle;resizable=0;points=[];fontSize=11;fontFamily=Helvetica;fontColor=default;" vertex="1" connectable="0" parent="KgrCzX5lwD0Mlf9f1d2X-109">
          <mxGeometry x="0.4675" y="1" relative="1" as="geometry">
            <mxPoint x="-3" y="15" as="offset" />
          </mxGeometry>
        </mxCell>
        <mxCell id="KgrCzX5lwD0Mlf9f1d2X-111" value="Melihat histori absen" style="ellipse;whiteSpace=wrap;html=1;align=center;" vertex="1" parent="1">
          <mxGeometry x="450" y="1080" width="110" height="60" as="geometry" />
        </mxCell>
        <mxCell id="KgrCzX5lwD0Mlf9f1d2X-112" style="edgeStyle=none;shape=connector;rounded=0;orthogonalLoop=1;jettySize=auto;html=1;exitX=0.5;exitY=0;exitDx=0;exitDy=0;entryX=1;entryY=1;entryDx=0;entryDy=0;labelBackgroundColor=default;strokeColor=default;fontFamily=Helvetica;fontSize=11;fontColor=default;endArrow=classic;dashed=1;" edge="1" parent="1" source="KgrCzX5lwD0Mlf9f1d2X-114" target="KgrCzX5lwD0Mlf9f1d2X-43">
          <mxGeometry relative="1" as="geometry">
            <mxPoint x="620" y="1020" as="targetPoint" />
          </mxGeometry>
        </mxCell>
        <mxCell id="KgrCzX5lwD0Mlf9f1d2X-113" value="&amp;lt;&amp;lt;extend&amp;gt;&amp;gt;" style="edgeLabel;html=1;align=center;verticalAlign=middle;resizable=0;points=[];fontSize=11;fontFamily=Helvetica;fontColor=default;" vertex="1" connectable="0" parent="KgrCzX5lwD0Mlf9f1d2X-112">
          <mxGeometry x="0.3983" y="1" relative="1" as="geometry">
            <mxPoint x="9" y="12" as="offset" />
          </mxGeometry>
        </mxCell>
        <mxCell id="KgrCzX5lwD0Mlf9f1d2X-114" value="Melakukan Cekin" style="ellipse;whiteSpace=wrap;html=1;align=center;" vertex="1" parent="1">
          <mxGeometry x="585" y="1080" width="110" height="60" as="geometry" />
        </mxCell>
        <mxCell id="KgrCzX5lwD0Mlf9f1d2X-115" style="edgeStyle=none;shape=connector;rounded=0;orthogonalLoop=1;jettySize=auto;html=1;exitX=0.5;exitY=0;exitDx=0;exitDy=0;entryX=0;entryY=1;entryDx=0;entryDy=0;labelBackgroundColor=default;strokeColor=default;fontFamily=Helvetica;fontSize=11;fontColor=default;endArrow=classic;dashed=1;" edge="1" parent="1" source="KgrCzX5lwD0Mlf9f1d2X-117" target="KgrCzX5lwD0Mlf9f1d2X-45">
          <mxGeometry relative="1" as="geometry">
            <mxPoint x="515" y="1560" as="targetPoint" />
          </mxGeometry>
        </mxCell>
        <mxCell id="KgrCzX5lwD0Mlf9f1d2X-116" value="&amp;lt;&amp;lt;extend&amp;gt;&amp;gt;" style="edgeLabel;html=1;align=center;verticalAlign=middle;resizable=0;points=[];fontSize=11;fontFamily=Helvetica;fontColor=default;" vertex="1" connectable="0" parent="KgrCzX5lwD0Mlf9f1d2X-115">
          <mxGeometry x="0.4675" y="1" relative="1" as="geometry">
            <mxPoint x="-3" y="15" as="offset" />
          </mxGeometry>
        </mxCell>
        <mxCell id="KgrCzX5lwD0Mlf9f1d2X-117" value="Menambah daftar outlet" style="ellipse;whiteSpace=wrap;html=1;align=center;" vertex="1" parent="1">
          <mxGeometry x="425" y="1600" width="110" height="60" as="geometry" />
        </mxCell>
        <mxCell id="KgrCzX5lwD0Mlf9f1d2X-118" style="edgeStyle=none;shape=connector;rounded=0;orthogonalLoop=1;jettySize=auto;html=1;exitX=0.5;exitY=0;exitDx=0;exitDy=0;entryX=0.5;entryY=1;entryDx=0;entryDy=0;labelBackgroundColor=default;strokeColor=default;fontFamily=Helvetica;fontSize=11;fontColor=default;endArrow=classic;dashed=1;" edge="1" parent="1" source="KgrCzX5lwD0Mlf9f1d2X-120" target="KgrCzX5lwD0Mlf9f1d2X-45">
          <mxGeometry relative="1" as="geometry">
            <mxPoint x="565" y="1570" as="targetPoint" />
          </mxGeometry>
        </mxCell>
        <mxCell id="KgrCzX5lwD0Mlf9f1d2X-119" value="&amp;lt;&amp;lt;extend&amp;gt;&amp;gt;" style="edgeLabel;html=1;align=center;verticalAlign=middle;resizable=0;points=[];fontSize=11;fontFamily=Helvetica;fontColor=default;" vertex="1" connectable="0" parent="KgrCzX5lwD0Mlf9f1d2X-118">
          <mxGeometry x="0.4675" y="1" relative="1" as="geometry">
            <mxPoint x="-3" y="15" as="offset" />
          </mxGeometry>
        </mxCell>
        <mxCell id="KgrCzX5lwD0Mlf9f1d2X-120" value="Mengupdate daftar outlet" style="ellipse;whiteSpace=wrap;html=1;align=center;" vertex="1" parent="1">
          <mxGeometry x="515" y="1680" width="110" height="60" as="geometry" />
        </mxCell>
        <mxCell id="KgrCzX5lwD0Mlf9f1d2X-121" style="edgeStyle=none;shape=connector;rounded=0;orthogonalLoop=1;jettySize=auto;html=1;exitX=0.5;exitY=0;exitDx=0;exitDy=0;entryX=1;entryY=1;entryDx=0;entryDy=0;labelBackgroundColor=default;strokeColor=default;fontFamily=Helvetica;fontSize=11;fontColor=default;endArrow=classic;dashed=1;" edge="1" parent="1" source="KgrCzX5lwD0Mlf9f1d2X-123" target="KgrCzX5lwD0Mlf9f1d2X-45">
          <mxGeometry relative="1" as="geometry">
            <mxPoint x="615" y="1560" as="targetPoint" />
          </mxGeometry>
        </mxCell>
        <mxCell id="KgrCzX5lwD0Mlf9f1d2X-122" value="&amp;lt;&amp;lt;extend&amp;gt;&amp;gt;" style="edgeLabel;html=1;align=center;verticalAlign=middle;resizable=0;points=[];fontSize=11;fontFamily=Helvetica;fontColor=default;" vertex="1" connectable="0" parent="KgrCzX5lwD0Mlf9f1d2X-121">
          <mxGeometry x="0.4675" y="1" relative="1" as="geometry">
            <mxPoint x="14" y="15" as="offset" />
          </mxGeometry>
        </mxCell>
        <mxCell id="KgrCzX5lwD0Mlf9f1d2X-123" value="memverifikasi daftar outlet" style="ellipse;whiteSpace=wrap;html=1;align=center;" vertex="1" parent="1">
          <mxGeometry x="605" y="1600" width="110" height="60" as="geometry" />
        </mxCell>
        <mxCell id="KgrCzX5lwD0Mlf9f1d2X-125" style="edgeStyle=none;shape=connector;rounded=0;orthogonalLoop=1;jettySize=auto;html=1;exitX=0.5;exitY=0;exitDx=0;exitDy=0;entryX=0;entryY=1;entryDx=0;entryDy=0;labelBackgroundColor=default;strokeColor=default;fontFamily=Helvetica;fontSize=11;fontColor=default;endArrow=classic;dashed=1;" edge="1" parent="1" source="KgrCzX5lwD0Mlf9f1d2X-127" target="KgrCzX5lwD0Mlf9f1d2X-50">
          <mxGeometry relative="1" as="geometry">
            <mxPoint x="521" y="1800" as="targetPoint" />
          </mxGeometry>
        </mxCell>
        <mxCell id="KgrCzX5lwD0Mlf9f1d2X-126" value="&amp;lt;&amp;lt;extend&amp;gt;&amp;gt;" style="edgeLabel;html=1;align=center;verticalAlign=middle;resizable=0;points=[];fontSize=11;fontFamily=Helvetica;fontColor=default;" vertex="1" connectable="0" parent="KgrCzX5lwD0Mlf9f1d2X-125">
          <mxGeometry x="0.4675" y="1" relative="1" as="geometry">
            <mxPoint x="-3" y="15" as="offset" />
          </mxGeometry>
        </mxCell>
        <mxCell id="KgrCzX5lwD0Mlf9f1d2X-127" value="menambah plan call" style="ellipse;whiteSpace=wrap;html=1;align=center;" vertex="1" parent="1">
          <mxGeometry x="441" y="1860" width="110" height="60" as="geometry" />
        </mxCell>
        <mxCell id="KgrCzX5lwD0Mlf9f1d2X-128" style="edgeStyle=none;shape=connector;rounded=0;orthogonalLoop=1;jettySize=auto;html=1;exitX=0.5;exitY=0;exitDx=0;exitDy=0;entryX=1;entryY=1;entryDx=0;entryDy=0;labelBackgroundColor=default;strokeColor=default;fontFamily=Helvetica;fontSize=11;fontColor=default;endArrow=classic;dashed=1;" edge="1" parent="1" source="KgrCzX5lwD0Mlf9f1d2X-130" target="KgrCzX5lwD0Mlf9f1d2X-50">
          <mxGeometry relative="1" as="geometry">
            <mxPoint x="621" y="1800" as="targetPoint" />
          </mxGeometry>
        </mxCell>
        <mxCell id="KgrCzX5lwD0Mlf9f1d2X-129" value="&amp;lt;&amp;lt;extend&amp;gt;&amp;gt;" style="edgeLabel;html=1;align=center;verticalAlign=middle;resizable=0;points=[];fontSize=11;fontFamily=Helvetica;fontColor=default;" vertex="1" connectable="0" parent="KgrCzX5lwD0Mlf9f1d2X-128">
          <mxGeometry x="0.3983" y="1" relative="1" as="geometry">
            <mxPoint x="9" y="12" as="offset" />
          </mxGeometry>
        </mxCell>
        <mxCell id="KgrCzX5lwD0Mlf9f1d2X-130" value="mengupdate plan call" style="ellipse;whiteSpace=wrap;html=1;align=center;" vertex="1" parent="1">
          <mxGeometry x="591" y="1860" width="110" height="60" as="geometry" />
        </mxCell>
        <mxCell id="KgrCzX5lwD0Mlf9f1d2X-136" style="edgeStyle=none;shape=connector;rounded=0;orthogonalLoop=1;jettySize=auto;html=1;exitX=1;exitY=0.3333333333333333;exitDx=0;exitDy=0;exitPerimeter=0;entryX=0;entryY=0.5;entryDx=0;entryDy=0;labelBackgroundColor=default;strokeColor=default;fontFamily=Helvetica;fontSize=11;fontColor=default;endArrow=classic;" edge="1" parent="1" source="KgrCzX5lwD0Mlf9f1d2X-133" target="KgrCzX5lwD0Mlf9f1d2X-42">
          <mxGeometry relative="1" as="geometry" />
        </mxCell>
        <mxCell id="KgrCzX5lwD0Mlf9f1d2X-137" style="edgeStyle=none;shape=connector;rounded=0;orthogonalLoop=1;jettySize=auto;html=1;exitX=1;exitY=0.3333333333333333;exitDx=0;exitDy=0;exitPerimeter=0;entryX=0;entryY=0.5;entryDx=0;entryDy=0;labelBackgroundColor=default;strokeColor=default;fontFamily=Helvetica;fontSize=11;fontColor=default;endArrow=classic;" edge="1" parent="1" source="KgrCzX5lwD0Mlf9f1d2X-133" target="KgrCzX5lwD0Mlf9f1d2X-43">
          <mxGeometry relative="1" as="geometry" />
        </mxCell>
        <mxCell id="KgrCzX5lwD0Mlf9f1d2X-138" style="edgeStyle=none;shape=connector;rounded=0;orthogonalLoop=1;jettySize=auto;html=1;exitX=1;exitY=0.3333333333333333;exitDx=0;exitDy=0;exitPerimeter=0;entryX=0;entryY=0.5;entryDx=0;entryDy=0;labelBackgroundColor=default;strokeColor=default;fontFamily=Helvetica;fontSize=11;fontColor=default;endArrow=classic;" edge="1" parent="1" source="KgrCzX5lwD0Mlf9f1d2X-133" target="KgrCzX5lwD0Mlf9f1d2X-69">
          <mxGeometry relative="1" as="geometry" />
        </mxCell>
        <mxCell id="KgrCzX5lwD0Mlf9f1d2X-139" style="edgeStyle=none;shape=connector;rounded=0;orthogonalLoop=1;jettySize=auto;html=1;exitX=1;exitY=0.3333333333333333;exitDx=0;exitDy=0;exitPerimeter=0;entryX=0;entryY=0.5;entryDx=0;entryDy=0;labelBackgroundColor=default;strokeColor=default;fontFamily=Helvetica;fontSize=11;fontColor=default;endArrow=classic;" edge="1" parent="1" source="KgrCzX5lwD0Mlf9f1d2X-133" target="KgrCzX5lwD0Mlf9f1d2X-49">
          <mxGeometry relative="1" as="geometry" />
        </mxCell>
        <mxCell id="KgrCzX5lwD0Mlf9f1d2X-140" style="edgeStyle=none;shape=connector;rounded=0;orthogonalLoop=1;jettySize=auto;html=1;exitX=1;exitY=0.3333333333333333;exitDx=0;exitDy=0;exitPerimeter=0;entryX=0;entryY=0.5;entryDx=0;entryDy=0;labelBackgroundColor=default;strokeColor=default;fontFamily=Helvetica;fontSize=11;fontColor=default;endArrow=classic;" edge="1" parent="1" source="KgrCzX5lwD0Mlf9f1d2X-133" target="KgrCzX5lwD0Mlf9f1d2X-45">
          <mxGeometry relative="1" as="geometry" />
        </mxCell>
        <mxCell id="KgrCzX5lwD0Mlf9f1d2X-141" style="edgeStyle=none;shape=connector;rounded=0;orthogonalLoop=1;jettySize=auto;html=1;exitX=1;exitY=0.3333333333333333;exitDx=0;exitDy=0;exitPerimeter=0;entryX=0;entryY=0.5;entryDx=0;entryDy=0;labelBackgroundColor=default;strokeColor=default;fontFamily=Helvetica;fontSize=11;fontColor=default;endArrow=classic;" edge="1" parent="1" source="KgrCzX5lwD0Mlf9f1d2X-133" target="KgrCzX5lwD0Mlf9f1d2X-50">
          <mxGeometry relative="1" as="geometry" />
        </mxCell>
        <mxCell id="KgrCzX5lwD0Mlf9f1d2X-133" value="Sales" style="shape=umlActor;verticalLabelPosition=bottom;verticalAlign=top;html=1;" vertex="1" parent="1">
          <mxGeometry x="120" y="1150" width="30" height="60" as="geometry" />
        </mxCell>
        <mxCell id="KgrCzX5lwD0Mlf9f1d2X-149" style="edgeStyle=none;shape=connector;rounded=0;orthogonalLoop=1;jettySize=auto;html=1;exitX=0;exitY=0.5;exitDx=0;exitDy=0;exitPerimeter=0;entryX=0.5;entryY=0;entryDx=0;entryDy=0;labelBackgroundColor=default;strokeColor=default;fontFamily=Helvetica;fontSize=11;fontColor=default;endArrow=none;dashed=1;endFill=0;" edge="1" parent="1" source="KgrCzX5lwD0Mlf9f1d2X-147" target="KgrCzX5lwD0Mlf9f1d2X-120">
          <mxGeometry relative="1" as="geometry" />
        </mxCell>
        <mxCell id="KgrCzX5lwD0Mlf9f1d2X-147" value="Condition: {role admin}" style="shape=note;whiteSpace=wrap;html=1;backgroundOutline=1;darkOpacity=0.05;fontFamily=Helvetica;fontSize=11;fontColor=default;" vertex="1" parent="1">
          <mxGeometry x="720" y="1652" width="210" height="50" as="geometry" />
        </mxCell>
        <mxCell id="KgrCzX5lwD0Mlf9f1d2X-151" style="edgeStyle=none;shape=connector;rounded=0;orthogonalLoop=1;jettySize=auto;html=1;exitX=0;exitY=0.5;exitDx=0;exitDy=0;exitPerimeter=0;entryX=0.5;entryY=0;entryDx=0;entryDy=0;labelBackgroundColor=default;strokeColor=default;fontFamily=Helvetica;fontSize=11;fontColor=default;endArrow=none;dashed=1;endFill=0;" edge="1" parent="1" source="KgrCzX5lwD0Mlf9f1d2X-150" target="KgrCzX5lwD0Mlf9f1d2X-123">
          <mxGeometry relative="1" as="geometry" />
        </mxCell>
        <mxCell id="KgrCzX5lwD0Mlf9f1d2X-150" value="Condition: {role admin}" style="shape=note;whiteSpace=wrap;html=1;backgroundOutline=1;darkOpacity=0.05;fontFamily=Helvetica;fontSize=11;fontColor=default;" vertex="1" parent="1">
          <mxGeometry x="780" y="1574" width="210" height="50" as="geometry" />
        </mxCell>
        <mxCell id="KgrCzX5lwD0Mlf9f1d2X-152" style="edgeStyle=none;shape=connector;rounded=0;orthogonalLoop=1;jettySize=auto;html=1;exitX=0;exitY=0.5;exitDx=0;exitDy=0;exitPerimeter=0;entryX=0.5;entryY=0;entryDx=0;entryDy=0;labelBackgroundColor=default;strokeColor=default;fontFamily=Helvetica;fontSize=11;fontColor=default;endArrow=none;dashed=1;endFill=0;" edge="1" parent="1" source="KgrCzX5lwD0Mlf9f1d2X-153" target="KgrCzX5lwD0Mlf9f1d2X-130">
          <mxGeometry relative="1" as="geometry">
            <mxPoint x="610" y="1858" as="targetPoint" />
          </mxGeometry>
        </mxCell>
        <mxCell id="KgrCzX5lwD0Mlf9f1d2X-153" value="Condition: {role admin}" style="shape=note;whiteSpace=wrap;html=1;backgroundOutline=1;darkOpacity=0.05;fontFamily=Helvetica;fontSize=11;fontColor=default;" vertex="1" parent="1">
          <mxGeometry x="760" y="1834" width="210" height="50" as="geometry" />
        </mxCell>
        <mxCell id="KgrCzX5lwD0Mlf9f1d2X-154" style="edgeStyle=none;shape=connector;rounded=0;orthogonalLoop=1;jettySize=auto;html=1;exitX=0;exitY=0;exitDx=210;exitDy=30;exitPerimeter=0;entryX=0.5;entryY=0;entryDx=0;entryDy=0;labelBackgroundColor=default;strokeColor=default;fontFamily=Helvetica;fontSize=11;fontColor=default;endArrow=none;dashed=1;endFill=0;" edge="1" parent="1" source="KgrCzX5lwD0Mlf9f1d2X-155" target="KgrCzX5lwD0Mlf9f1d2X-127">
          <mxGeometry relative="1" as="geometry">
            <mxPoint x="70" y="1891" as="targetPoint" />
          </mxGeometry>
        </mxCell>
        <mxCell id="KgrCzX5lwD0Mlf9f1d2X-155" value="Condition: {role admin}" style="shape=note;whiteSpace=wrap;html=1;backgroundOutline=1;darkOpacity=0.05;fontFamily=Helvetica;fontSize=11;fontColor=default;" vertex="1" parent="1">
          <mxGeometry x="184" y="1830" width="210" height="50" as="geometry" />
        </mxCell>
      </root>
    </mxGraphModel>
  </diagram>
</mxfile>
